{
  "result": {
    "item": "betterwithmods:padded_boots"
  },
  "pattern": [
    "P P",
    "P P"
  ],
  "type": "forge:ore_shaped",
  "key": {
    "P": {
      "ore": "padding",
      "type": "forge:ore_dict"
    }
  }
}