{
  "result": {
    "item": "betterwithmods:gravel_slab",
    "data": 0,
    "count": 4
  },
  "pattern": [
    "DD"
  ],
  "type": "minecraft:crafting_shaped",
  "key": {
    "D": {
      "item": "minecraft:gravel",
      "data": 0
    }
  }
}