{
  "result": {
    "item": "betterwithmods:sand_slab",
    "data": 0
  },
  "ingredients": [
    {
      "item": "betterwithmods:sand_pile"
    },
    {
      "item": "betterwithmods:sand_pile"
    }
  ],
  "type": "minecraft:crafting_shapeless"
}